<?xml version="1.0" encoding="UTF-8" standalone="no"?>
<svg
   xmlns:dc="http://purl.org/dc/elements/1.1/"
   xmlns:cc="http://creativecommons.org/ns#"
   xmlns:rdf="http://www.w3.org/1999/02/22-rdf-syntax-ns#"
   xmlns:svg="http://www.w3.org/2000/svg"
   xmlns="http://www.w3.org/2000/svg"
   xmlns:sodipodi="http://sodipodi.sourceforge.net/DTD/sodipodi-0.dtd"
   xmlns:inkscape="http://www.inkscape.org/namespaces/inkscape"
   width="100.00003mm"
   height="73.672173mm"
   viewBox="0 0 100.00003 73.672171"
   version="1.1"
   id="svg728"
   inkscape:version="1.0.2 (e86c870879, 2021-01-15)"
   sodipodi:docname="transmission.svg"
   inkscape:export-filename="/home/catgolin/Documents/Memoire/Presentation/transmission.png"
   inkscape:export-xdpi="2212"
   inkscape:export-ydpi="2212">
  <defs
     id="defs722">
    <inkscape:path-effect
       effect="bspline"
       id="path-effect2971"
       is_visible="true"
       lpeversion="1"
       weight="33.333333"
       steps="2"
       helper_size="0"
       apply_no_weight="true"
       apply_with_weight="true"
       only_selected="false" />
    <inkscape:path-effect
       effect="bspline"
       id="path-effect2967"
       is_visible="true"
       lpeversion="1"
       weight="33.333333"
       steps="2"
       helper_size="0"
       apply_no_weight="true"
       apply_with_weight="true"
       only_selected="false" />
    <inkscape:path-effect
       effect="bspline"
       id="path-effect2959"
       is_visible="true"
       lpeversion="1"
       weight="33.333333"
       steps="2"
       helper_size="0"
       apply_no_weight="true"
       apply_with_weight="true"
       only_selected="false" />
    <inkscape:path-effect
       effect="bspline"
       id="path-effect2955"
       is_visible="true"
       lpeversion="1"
       weight="33.333333"
       steps="2"
       helper_size="0"
       apply_no_weight="true"
       apply_with_weight="true"
       only_selected="false" />
    <inkscape:path-effect
       effect="bspline"
       id="path-effect2951"
       is_visible="true"
       lpeversion="1"
       weight="33.333333"
       steps="2"
       helper_size="0"
       apply_no_weight="true"
       apply_with_weight="true"
       only_selected="false" />
    <inkscape:path-effect
       effect="bspline"
       id="path-effect2943"
       is_visible="true"
       lpeversion="1"
       weight="33.333333"
       steps="2"
       helper_size="0"
       apply_no_weight="true"
       apply_with_weight="true"
       only_selected="false" />
    <inkscape:path-effect
       effect="bspline"
       id="path-effect2939"
       is_visible="true"
       lpeversion="1"
       weight="33.333333"
       steps="2"
       helper_size="0"
       apply_no_weight="true"
       apply_with_weight="true"
       only_selected="false" />
    <inkscape:path-effect
       effect="bspline"
       id="path-effect2935"
       is_visible="true"
       lpeversion="1"
       weight="33.333333"
       steps="2"
       helper_size="0"
       apply_no_weight="true"
       apply_with_weight="true"
       only_selected="false" />
    <inkscape:path-effect
       effect="bspline"
       id="path-effect2927"
       is_visible="true"
       lpeversion="1"
       weight="33.333333"
       steps="2"
       helper_size="0"
       apply_no_weight="true"
       apply_with_weight="true"
       only_selected="false" />
    <inkscape:path-effect
       effect="bspline"
       id="path-effect2923"
       is_visible="true"
       lpeversion="1"
       weight="33.333333"
       steps="2"
       helper_size="0"
       apply_no_weight="true"
       apply_with_weight="true"
       only_selected="false" />
    <inkscape:path-effect
       effect="bspline"
       id="path-effect2919"
       is_visible="true"
       lpeversion="1"
       weight="33.333333"
       steps="2"
       helper_size="0"
       apply_no_weight="true"
       apply_with_weight="true"
       only_selected="false" />
    <inkscape:path-effect
       effect="bspline"
       id="path-effect2915"
       is_visible="true"
       lpeversion="1"
       weight="33.333333"
       steps="2"
       helper_size="0"
       apply_no_weight="true"
       apply_with_weight="true"
       only_selected="false" />
    <inkscape:path-effect
       effect="bspline"
       id="path-effect2911"
       is_visible="true"
       lpeversion="1"
       weight="33.333333"
       steps="2"
       helper_size="0"
       apply_no_weight="true"
       apply_with_weight="true"
       only_selected="false" />
    <inkscape:path-effect
       effect="bspline"
       id="path-effect2907"
       is_visible="true"
       lpeversion="1"
       weight="33.333333"
       steps="2"
       helper_size="0"
       apply_no_weight="true"
       apply_with_weight="true"
       only_selected="false" />
    <inkscape:path-effect
       effect="bspline"
       id="path-effect2903"
       is_visible="true"
       lpeversion="1"
       weight="33.333333"
       steps="2"
       helper_size="0"
       apply_no_weight="true"
       apply_with_weight="true"
       only_selected="false" />
    <inkscape:path-effect
       effect="bspline"
       id="path-effect2335"
       is_visible="true"
       lpeversion="1"
       weight="33.333333"
       steps="2"
       helper_size="0"
       apply_no_weight="true"
       apply_with_weight="true"
       only_selected="false" />
    <inkscape:path-effect
       effect="bspline"
       id="path-effect2331"
       is_visible="true"
       lpeversion="1"
       weight="33.333333"
       steps="2"
       helper_size="0"
       apply_no_weight="true"
       apply_with_weight="true"
       only_selected="false" />
    <inkscape:path-effect
       effect="bspline"
       id="path-effect2327"
       is_visible="true"
       lpeversion="1"
       weight="33.333333"
       steps="2"
       helper_size="0"
       apply_no_weight="true"
       apply_with_weight="true"
       only_selected="false" />
    <inkscape:path-effect
       effect="bspline"
       id="path-effect2323"
       is_visible="true"
       lpeversion="1"
       weight="33.333333"
       steps="2"
       helper_size="0"
       apply_no_weight="true"
       apply_with_weight="true"
       only_selected="false" />
    <inkscape:path-effect
       effect="bspline"
       id="path-effect2319"
       is_visible="true"
       lpeversion="1"
       weight="33.333333"
       steps="2"
       helper_size="0"
       apply_no_weight="true"
       apply_with_weight="true"
       only_selected="false" />
    <inkscape:path-effect
       effect="bspline"
       id="path-effect1322"
       is_visible="true"
       lpeversion="1"
       weight="33.333333"
       steps="2"
       helper_size="0"
       apply_no_weight="true"
       apply_with_weight="true"
       only_selected="false" />
    <inkscape:path-effect
       effect="bspline"
       id="path-effect1318"
       is_visible="true"
       lpeversion="1"
       weight="33.333333"
       steps="2"
       helper_size="0"
       apply_no_weight="true"
       apply_with_weight="true"
       only_selected="false" />
    <inkscape:path-effect
       effect="bspline"
       id="path-effect1314"
       is_visible="true"
       lpeversion="1"
       weight="33.333333"
       steps="2"
       helper_size="0"
       apply_no_weight="true"
       apply_with_weight="true"
       only_selected="false" />
    <inkscape:path-effect
       effect="bspline"
       id="path-effect1310"
       is_visible="true"
       lpeversion="1"
       weight="33.333333"
       steps="2"
       helper_size="0"
       apply_no_weight="true"
       apply_with_weight="true"
       only_selected="false" />
    <inkscape:path-effect
       effect="bspline"
       id="path-effect1306"
       is_visible="true"
       lpeversion="1"
       weight="33.333333"
       steps="2"
       helper_size="0"
       apply_no_weight="true"
       apply_with_weight="true"
       only_selected="false" />
    <inkscape:path-effect
       effect="bspline"
       id="path-effect1302"
       is_visible="true"
       lpeversion="1"
       weight="33.333333"
       steps="2"
       helper_size="0"
       apply_no_weight="true"
       apply_with_weight="true"
       only_selected="false" />
    <inkscape:path-effect
       effect="bspline"
       id="path-effect1298"
       is_visible="true"
       lpeversion="1"
       weight="33.333333"
       steps="2"
       helper_size="0"
       apply_no_weight="true"
       apply_with_weight="true"
       only_selected="false" />
    <inkscape:path-effect
       effect="bspline"
       id="path-effect1294"
       is_visible="true"
       lpeversion="1"
       weight="33.333333"
       steps="2"
       helper_size="0"
       apply_no_weight="true"
       apply_with_weight="true"
       only_selected="false" />
    <inkscape:path-effect
       effect="bspline"
       id="path-effect1290"
       is_visible="true"
       lpeversion="1"
       weight="33.333333"
       steps="2"
       helper_size="0"
       apply_no_weight="true"
       apply_with_weight="true"
       only_selected="false" />
    <inkscape:path-effect
       effect="bspline"
       id="path-effect1286"
       is_visible="true"
       lpeversion="1"
       weight="33.333333"
       steps="2"
       helper_size="0"
       apply_no_weight="true"
       apply_with_weight="true"
       only_selected="false" />
    <marker
       style="overflow:visible"
       id="marker1793"
       refX="0"
       refY="0"
       orient="auto"
       inkscape:stockid="Arrow1Lend"
       inkscape:isstock="true">
      <path
         transform="matrix(-0.8,0,0,-0.8,-10,0)"
         style="fill:#000000;fill-opacity:1;fill-rule:evenodd;stroke:#000000;stroke-width:1pt;stroke-opacity:1"
         d="M 0,0 5,-5 -12.5,0 5,5 Z"
         id="path1791" />
    </marker>
    <inkscape:path-effect
       effect="bspline"
       id="path-effect98"
       is_visible="true"
       lpeversion="1"
       weight="33.333333"
       steps="2"
       helper_size="0"
       apply_no_weight="true"
       apply_with_weight="true"
       only_selected="false" />
    <marker
       style="overflow:visible"
       id="marker2133"
       refX="0"
       refY="0"
       orient="auto"
       inkscape:stockid="Arrow1Lend"
       inkscape:isstock="true">
      <path
         transform="matrix(-0.8,0,0,-0.8,-10,0)"
         style="fill:#000000;fill-opacity:1;fill-rule:evenodd;stroke:#000000;stroke-width:1pt;stroke-opacity:1"
         d="M 0,0 5,-5 -12.5,0 5,5 Z"
         id="path2131" />
    </marker>
    <inkscape:path-effect
       effect="bspline"
       id="path-effect130"
       is_visible="true"
       lpeversion="1"
       weight="33.333333"
       steps="2"
       helper_size="0"
       apply_no_weight="true"
       apply_with_weight="true"
       only_selected="false" />
    <marker
       style="overflow:visible"
       id="marker2039"
       refX="0"
       refY="0"
       orient="auto"
       inkscape:stockid="Arrow1Lend"
       inkscape:isstock="true">
      <path
         transform="matrix(-0.8,0,0,-0.8,-10,0)"
         style="fill:#000000;fill-opacity:1;fill-rule:evenodd;stroke:#000000;stroke-width:1pt;stroke-opacity:1"
         d="M 0,0 5,-5 -12.5,0 5,5 Z"
         id="path2037" />
    </marker>
    <inkscape:path-effect
       effect="bspline"
       id="path-effect134"
       is_visible="true"
       lpeversion="1"
       weight="33.333333"
       steps="2"
       helper_size="0"
       apply_no_weight="true"
       apply_with_weight="true"
       only_selected="false" />
    <marker
       style="overflow:visible"
       id="marker1951"
       refX="0"
       refY="0"
       orient="auto"
       inkscape:stockid="Arrow1Lend"
       inkscape:isstock="true">
      <path
         transform="matrix(-0.8,0,0,-0.8,-10,0)"
         style="fill:#000000;fill-opacity:1;fill-rule:evenodd;stroke:#000000;stroke-width:1pt;stroke-opacity:1"
         d="M 0,0 5,-5 -12.5,0 5,5 Z"
         id="path1949" />
    </marker>
    <inkscape:path-effect
       effect="bspline"
       id="path-effect138"
       is_visible="true"
       lpeversion="1"
       weight="33.333333"
       steps="2"
       helper_size="0"
       apply_no_weight="true"
       apply_with_weight="true"
       only_selected="false" />
    <marker
       style="overflow:visible"
       id="marker1869"
       refX="0"
       refY="0"
       orient="auto"
       inkscape:stockid="Arrow1Lend"
       inkscape:isstock="true">
      <path
         transform="matrix(-0.8,0,0,-0.8,-10,0)"
         style="fill:#000000;fill-opacity:1;fill-rule:evenodd;stroke:#000000;stroke-width:1pt;stroke-opacity:1"
         d="M 0,0 5,-5 -12.5,0 5,5 Z"
         id="path1867" />
    </marker>
    <inkscape:path-effect
       effect="bspline"
       id="path-effect142"
       is_visible="true"
       lpeversion="1"
       weight="33.333333"
       steps="2"
       helper_size="0"
       apply_no_weight="true"
       apply_with_weight="true"
       only_selected="false" />
    <marker
       style="overflow:visible"
       id="marker4317"
       refX="0"
       refY="0"
       orient="auto"
       inkscape:stockid="EmptyTriangleOutL"
       inkscape:isstock="true">
      <path
         transform="matrix(0.8,0,0,0.8,-4.8,0)"
         style="fill:#ffffff;fill-rule:evenodd;stroke:#000000;stroke-width:1pt;stroke-opacity:1"
         d="M 5.77,0 -2.88,5 V -5 Z"
         id="path4315" />
    </marker>
    <inkscape:path-effect
       effect="bspline"
       id="path-effect146"
       is_visible="true"
       lpeversion="1"
       weight="33.333333"
       steps="2"
       helper_size="0"
       apply_no_weight="true"
       apply_with_weight="true"
       only_selected="false" />
    <marker
       style="overflow:visible"
       id="marker2233"
       refX="0"
       refY="0"
       orient="auto"
       inkscape:stockid="Arrow1Lend"
       inkscape:isstock="true">
      <path
         transform="matrix(-0.8,0,0,-0.8,-10,0)"
         style="fill:#000000;fill-opacity:1;fill-rule:evenodd;stroke:#000000;stroke-width:1pt;stroke-opacity:1"
         d="M 0,0 5,-5 -12.5,0 5,5 Z"
         id="path2231" />
    </marker>
    <inkscape:path-effect
       effect="bspline"
       id="path-effect154"
       is_visible="true"
       lpeversion="1"
       weight="33.333333"
       steps="2"
       helper_size="0"
       apply_no_weight="true"
       apply_with_weight="true"
       only_selected="false" />
    <marker
       style="overflow:visible"
       id="marker2451"
       refX="0"
       refY="0"
       orient="auto"
       inkscape:stockid="Arrow1Lend"
       inkscape:isstock="true">
      <path
         transform="matrix(-0.8,0,0,-0.8,-10,0)"
         style="fill:#000000;fill-opacity:1;fill-rule:evenodd;stroke:#000000;stroke-width:1pt;stroke-opacity:1"
         d="M 0,0 5,-5 -12.5,0 5,5 Z"
         id="path2449" />
    </marker>
    <inkscape:path-effect
       effect="bspline"
       id="path-effect997"
       is_visible="true"
       lpeversion="1"
       weight="33.333333"
       steps="2"
       helper_size="0"
       apply_no_weight="true"
       apply_with_weight="true"
       only_selected="false" />
    <marker
       style="overflow:visible"
       id="marker1723"
       refX="0"
       refY="0"
       orient="auto"
       inkscape:stockid="Arrow1Lend"
       inkscape:isstock="true">
      <path
         transform="matrix(-0.8,0,0,-0.8,-10,0)"
         style="fill:#000000;fill-opacity:1;fill-rule:evenodd;stroke:#000000;stroke-width:1pt;stroke-opacity:1"
         d="M 0,0 5,-5 -12.5,0 5,5 Z"
         id="path1721" />
    </marker>
    <inkscape:path-effect
       effect="bspline"
       id="path-effect1011"
       is_visible="true"
       lpeversion="1"
       weight="33.333333"
       steps="2"
       helper_size="0"
       apply_no_weight="true"
       apply_with_weight="true"
       only_selected="false" />
    <marker
       style="overflow:visible"
       id="Arrow1Lend"
       refX="0"
       refY="0"
       orient="auto"
       inkscape:stockid="Arrow1Lend"
       inkscape:isstock="true">
      <path
         transform="matrix(-0.8,0,0,-0.8,-10,0)"
         style="fill:#000000;fill-opacity:1;fill-rule:evenodd;stroke:#000000;stroke-width:1pt;stroke-opacity:1"
         d="M 0,0 5,-5 -12.5,0 5,5 Z"
         id="path1062" />
    </marker>
    <inkscape:path-effect
       effect="bspline"
       id="path-effect1053"
       is_visible="true"
       lpeversion="1"
       weight="33.333333"
       steps="2"
       helper_size="0"
       apply_no_weight="true"
       apply_with_weight="true"
       only_selected="false" />
    <inkscape:path-effect
       effect="bspline"
       id="path-effect1057"
       is_visible="true"
       lpeversion="1"
       weight="33.333333"
       steps="2"
       helper_size="0"
       apply_no_weight="true"
       apply_with_weight="true"
       only_selected="false" />
    <marker
       style="overflow:visible"
       id="Arrow1Lstart"
       refX="0"
       refY="0"
       orient="auto"
       inkscape:stockid="Arrow1Lstart"
       inkscape:isstock="true">
      <path
         transform="matrix(0.8,0,0,0.8,10,0)"
         style="fill:#000000;fill-opacity:1;fill-rule:evenodd;stroke:#000000;stroke-width:1pt;stroke-opacity:1"
         d="M 0,0 5,-5 -12.5,0 5,5 Z"
         id="path1059" />
    </marker>
    <marker
       style="overflow:visible"
       id="Arrow1Lend-3"
       refX="0"
       refY="0"
       orient="auto"
       inkscape:stockid="Arrow1Lend"
       inkscape:isstock="true">
      <path
         transform="matrix(-0.8,0,0,-0.8,-10,0)"
         style="fill:#000000;fill-opacity:1;fill-rule:evenodd;stroke:#000000;stroke-width:1pt;stroke-opacity:1"
         d="M 0,0 5,-5 -12.5,0 5,5 Z"
         id="path1062-6" />
    </marker>
    <inkscape:path-effect
       effect="bspline"
       id="path-effect2962"
       is_visible="true"
       lpeversion="1"
       weight="33.333333"
       steps="2"
       helper_size="0"
       apply_no_weight="true"
       apply_with_weight="true"
       only_selected="false" />
    <marker
       style="overflow:visible"
       id="Arrow1Lstart-5"
       refX="0"
       refY="0"
       orient="auto"
       inkscape:stockid="Arrow1Lstart"
       inkscape:isstock="true">
      <path
         transform="matrix(0.8,0,0,0.8,10,0)"
         style="fill:#000000;fill-opacity:1;fill-rule:evenodd;stroke:#000000;stroke-width:1pt;stroke-opacity:1"
         d="M 0,0 5,-5 -12.5,0 5,5 Z"
         id="path1059-3" />
    </marker>
    <marker
       style="overflow:visible"
       id="Arrow1Lend-3-5"
       refX="0"
       refY="0"
       orient="auto"
       inkscape:stockid="Arrow1Lend"
       inkscape:isstock="true">
      <path
         transform="matrix(-0.8,0,0,-0.8,-10,0)"
         style="fill:#000000;fill-opacity:1;fill-rule:evenodd;stroke:#000000;stroke-width:1pt;stroke-opacity:1"
         d="M 0,0 5,-5 -12.5,0 5,5 Z"
         id="path1062-6-6" />
    </marker>
    <inkscape:path-effect
       effect="bspline"
       id="path-effect3604"
       is_visible="true"
       lpeversion="1"
       weight="33.333333"
       steps="2"
       helper_size="0"
       apply_no_weight="true"
       apply_with_weight="true"
       only_selected="false" />
    <marker
       style="overflow:visible"
       id="marker2233-9"
       refX="0"
       refY="0"
       orient="auto"
       inkscape:stockid="Arrow1Lend"
       inkscape:isstock="true">
      <path
         transform="matrix(-0.8,0,0,-0.8,-10,0)"
         style="fill:#000000;fill-opacity:1;fill-rule:evenodd;stroke:#000000;stroke-width:1pt;stroke-opacity:1"
         d="M 0,0 5,-5 -12.5,0 5,5 Z"
         id="path2231-3" />
    </marker>
    <inkscape:path-effect
       effect="bspline"
       id="path-effect4238"
       is_visible="true"
       lpeversion="1"
       weight="33.333333"
       steps="2"
       helper_size="0"
       apply_no_weight="true"
       apply_with_weight="true"
       only_selected="false" />
    <inkscape:path-effect
       effect="bspline"
       id="path-effect1459"
       is_visible="true"
       lpeversion="1"
       weight="33.333333"
       steps="2"
       helper_size="0"
       apply_no_weight="true"
       apply_with_weight="true"
       only_selected="false" />
    <inkscape:path-effect
       effect="bspline"
       id="path-effect1821"
       is_visible="true"
       lpeversion="1"
       weight="33.333333"
       steps="2"
       helper_size="0"
       apply_no_weight="true"
       apply_with_weight="true"
       only_selected="false" />
    <marker
       style="overflow:visible"
       id="marker1843"
       refX="0"
       refY="0"
       orient="auto"
       inkscape:stockid="Arrow1Lend"
       inkscape:isstock="true">
      <path
         transform="matrix(-0.8,0,0,-0.8,-10,0)"
         style="fill:#000000;fill-opacity:1;fill-rule:evenodd;stroke:#000000;stroke-width:1pt;stroke-opacity:1"
         d="M 0,0 5,-5 -12.5,0 5,5 Z"
         id="path1841" />
    </marker>
    <inkscape:path-effect
       effect="bspline"
       id="path-effect1825"
       is_visible="true"
       lpeversion="1"
       weight="33.333333"
       steps="2"
       helper_size="0"
       apply_no_weight="true"
       apply_with_weight="true"
       only_selected="false" />
    <marker
       style="overflow:visible"
       id="marker2021"
       refX="0"
       refY="0"
       orient="auto"
       inkscape:stockid="Arrow1Lend"
       inkscape:isstock="true">
      <path
         transform="matrix(-0.8,0,0,-0.8,-10,0)"
         style="fill:#000000;fill-opacity:1;fill-rule:evenodd;stroke:#000000;stroke-width:1pt;stroke-opacity:1"
         d="M 0,0 5,-5 -12.5,0 5,5 Z"
         id="path2019" />
    </marker>
    <inkscape:path-effect
       effect="bspline"
       id="path-effect1829"
       is_visible="true"
       lpeversion="1"
       weight="33.333333"
       steps="2"
       helper_size="0"
       apply_no_weight="true"
       apply_with_weight="true"
       only_selected="false" />
    <inkscape:path-effect
       effect="bspline"
       id="path-effect1833"
       is_visible="true"
       lpeversion="1"
       weight="33.333333"
       steps="2"
       helper_size="0"
       apply_no_weight="true"
       apply_with_weight="true"
       only_selected="false" />
    <inkscape:path-effect
       effect="bspline"
       id="path-effect1505"
       is_visible="true"
       lpeversion="1"
       weight="33.333333"
       steps="2"
       helper_size="0"
       apply_no_weight="true"
       apply_with_weight="true"
       only_selected="false" />
    <inkscape:path-effect
       effect="bspline"
       id="path-effect2443"
       is_visible="true"
       lpeversion="1"
       weight="33.333333"
       steps="2"
       helper_size="0"
       apply_no_weight="true"
       apply_with_weight="true"
       only_selected="false" />
    <inkscape:path-effect
       effect="bspline"
       id="path-effect2671"
       is_visible="true"
       lpeversion="1"
       weight="33.333333"
       steps="2"
       helper_size="0"
       apply_no_weight="true"
       apply_with_weight="true"
       only_selected="false" />
    <inkscape:path-effect
       effect="bspline"
       id="path-effect4600"
       is_visible="true"
       lpeversion="1"
       weight="33.333333"
       steps="2"
       helper_size="0"
       apply_no_weight="true"
       apply_with_weight="true"
       only_selected="false" />
    <marker
       style="overflow:visible"
       id="marker6589"
       refX="0"
       refY="0"
       orient="auto"
       inkscape:stockid="Arrow1Lend"
       inkscape:isstock="true">
      <path
         transform="matrix(-0.8,0,0,-0.8,-10,0)"
         style="fill:#000000;fill-opacity:1;fill-rule:evenodd;stroke:#000000;stroke-width:1pt;stroke-opacity:1"
         d="M 0,0 5,-5 -12.5,0 5,5 Z"
         id="path6587" />
    </marker>
    <inkscape:path-effect
       effect="bspline"
       id="path-effect4923"
       is_visible="true"
       lpeversion="1"
       weight="33.333333"
       steps="2"
       helper_size="0"
       apply_no_weight="true"
       apply_with_weight="true"
       only_selected="false" />
    <inkscape:path-effect
       effect="bspline"
       id="path-effect5234"
       is_visible="true"
       lpeversion="1"
       weight="33.333333"
       steps="2"
       helper_size="0"
       apply_no_weight="true"
       apply_with_weight="true"
       only_selected="false" />
    <marker
       style="overflow:visible"
       id="marker7759"
       refX="0"
       refY="0"
       orient="auto"
       inkscape:stockid="Arrow1Lend"
       inkscape:isstock="true">
      <path
         transform="matrix(-0.8,0,0,-0.8,-10,0)"
         style="fill:#000000;fill-opacity:1;fill-rule:evenodd;stroke:#000000;stroke-width:1pt;stroke-opacity:1"
         d="M 0,0 5,-5 -12.5,0 5,5 Z"
         id="path7757" />
    </marker>
    <inkscape:path-effect
       effect="bspline"
       id="path-effect7749"
       is_visible="true"
       lpeversion="1"
       weight="33.333333"
       steps="2"
       helper_size="0"
       apply_no_weight="true"
       apply_with_weight="true"
       only_selected="false" />
  </defs>
  <sodipodi:namedview
     id="base"
     pagecolor="#ffffff"
     bordercolor="#666666"
     borderopacity="1.0"
     inkscape:pageopacity="0.0"
     inkscape:pageshadow="2"
     inkscape:zoom="0.98994949"
     inkscape:cx="2.1939508"
     inkscape:cy="187.62423"
     inkscape:document-units="mm"
     inkscape:current-layer="layer1"
     inkscape:document-rotation="0"
     showgrid="false"
     inkscape:window-width="1366"
     inkscape:window-height="704"
     inkscape:window-x="0"
     inkscape:window-y="0"
     inkscape:window-maximized="1"
     showguides="false" />
  <metadata
     id="metadata725">
    <rdf:RDF>
      <cc:Work
         rdf:about="">
        <dc:format>image/svg+xml</dc:format>
        <dc:type
           rdf:resource="http://purl.org/dc/dcmitype/StillImage" />
        <dc:title></dc:title>
      </cc:Work>
    </rdf:RDF>
  </metadata>
  <g
     inkscape:label="Calque 1"
     inkscape:groupmode="layer"
     id="layer1"
     transform="translate(-33.131467)">
    <text
       xml:space="preserve"
       style="font-size:2.97082px;line-height:1.25;font-family:'Lucida Sans';-inkscape-font-specification:'Lucida Sans';text-align:center;letter-spacing:0px;word-spacing:0px;text-anchor:middle;stroke-width:0.185677"
       x="47.721195"
       y="2.4507802"
       id="text1160"
       transform="scale(0.99137322,1.0087018)"><tspan
         sodipodi:role="line"
         id="tspan1158"
         x="47.721195"
         y="2.4507802"
         style="stroke-width:0.185677"> الازَرقالي (Azarquiel)</tspan><tspan
         sodipodi:role="line"
         x="47.721195"
         y="6.2538137"
         style="stroke-width:0.185677"
         id="tspan1164">Tables de Tolède</tspan><tspan
         sodipodi:role="line"
         x="47.721195"
         y="9.9673386"
         style="stroke-width:0.185677"
         id="tspan1162">~1080</tspan></text>
    <text
       xml:space="preserve"
       style="font-size:2.97082px;line-height:1.25;font-family:'Lucida Sans';-inkscape-font-specification:'Lucida Sans';text-align:center;letter-spacing:0px;word-spacing:0px;text-anchor:middle;stroke-width:0.185677"
       x="121.41015"
       y="2.6110702"
       id="text1168"
       transform="scale(0.99137322,1.0087018)"><tspan
         sodipodi:role="line"
         x="121.41015"
         y="2.6110702"
         style="stroke-width:0.185677"
         id="tspan1170">الكَمٌال (al-Kammal)</tspan><tspan
         sodipodi:role="line"
         x="121.41015"
         y="6.414104"
         style="stroke-width:0.185677"
         id="tspan1174">al-Muqtabis</tspan><tspan
         sodipodi:role="line"
         x="121.41015"
         y="10.127629"
         style="stroke-width:0.185677"
         id="tspan1176">~1100</tspan></text>
    <text
       xml:space="preserve"
       style="font-size:2.97082px;line-height:1.25;font-family:'Lucida Sans';-inkscape-font-specification:'Lucida Sans';text-align:center;letter-spacing:0px;word-spacing:0px;text-anchor:middle;stroke-width:0.185677"
       x="85.209221"
       y="11.003681"
       id="text1180"
       transform="scale(0.99137326,1.0087018)"><tspan
         sodipodi:role="line"
         id="tspan1178"
         x="85.209221"
         y="11.003681"
         style="stroke-width:0.185677">Judah ben Moses ha-Cohen &amp; Isaac ben Sid</tspan><tspan
         sodipodi:role="line"
         x="85.209221"
         y="14.717206"
         style="font-style:italic;stroke-width:0.185677"
         id="tspan1182">Libro de las tabulas alfonsies</tspan><tspan
         sodipodi:role="line"
         x="85.209221"
         y="18.430731"
         style="stroke-width:0.185677"
         id="tspan1184">~1260</tspan></text>
    <text
       xml:space="preserve"
       style="font-size:2.97082px;line-height:1.25;font-family:'Lucida Sans';-inkscape-font-specification:'Lucida Sans';text-align:center;letter-spacing:0px;word-spacing:0px;text-anchor:middle;stroke-width:0.185677"
       x="47.908321"
       y="19.682369"
       id="text1206"
       transform="scale(0.99137326,1.0087018)"><tspan
         sodipodi:role="line"
         id="tspan1204"
         x="47.908321"
         y="19.682369"
         style="stroke-width:0.185677">Jean Vimond</tspan><tspan
         sodipodi:role="line"
         x="47.908321"
         y="23.395895"
         style="stroke-width:0.185677"
         id="tspan1208">~1320</tspan></text>
    <text
       xml:space="preserve"
       style="font-size:2.97082px;line-height:1.25;font-family:'Lucida Sans';-inkscape-font-specification:'Lucida Sans';text-align:center;letter-spacing:0px;word-spacing:0px;text-anchor:middle;stroke-width:0.185677"
       x="61.36311"
       y="27.832121"
       id="text1212"
       transform="scale(0.99137326,1.0087018)"><tspan
         sodipodi:role="line"
         id="tspan1210"
         x="61.36311"
         y="27.832121"
         style="stroke-width:0.185677">Jean de Lignères</tspan><tspan
         sodipodi:role="line"
         x="61.36311"
         y="31.545647"
         style="font-style:italic;stroke-width:0.185677"
         id="tspan1216">Tabilae magne</tspan><tspan
         sodipodi:role="line"
         x="61.36311"
         y="35.259171"
         style="stroke-width:0.185677"
         id="tspan1214">~1322/1325</tspan></text>
    <text
       xml:space="preserve"
       style="font-size:2.97082px;line-height:1.25;font-family:'Lucida Sans';-inkscape-font-specification:'Lucida Sans';text-align:center;letter-spacing:0px;word-spacing:0px;text-anchor:middle;stroke-width:0.185677"
       x="99.28756"
       y="29.876736"
       id="text1220"
       transform="scale(0.99137326,1.0087018)"><tspan
         sodipodi:role="line"
         id="tspan1218"
         x="99.28756"
         y="29.876736"
         style="stroke-width:0.185677">Jean de Murs</tspan><tspan
         sodipodi:role="line"
         x="99.28756"
         y="33.59026"
         style="stroke-width:0.185677"
         id="tspan1222">~1321</tspan></text>
    <text
       xml:space="preserve"
       style="font-size:2.97082px;line-height:1.25;font-family:'Lucida Sans';-inkscape-font-specification:'Lucida Sans';text-align:center;letter-spacing:0px;word-spacing:0px;text-anchor:middle;stroke-width:0.185677"
       x="80.450417"
       y="37.822807"
       id="text1226"
       transform="scale(0.99137326,1.0087018)"><tspan
         sodipodi:role="line"
         id="tspan1224"
         x="80.450417"
         y="37.822807"
         style="stroke-width:0.185677">Jean de Saxe</tspan><tspan
         sodipodi:role="line"
         x="80.450417"
         y="41.536331"
         style="stroke-width:0.185677"
         id="tspan1228">~1323</tspan></text>
    <text
       xml:space="preserve"
       style="font-size:2.97082px;line-height:1.25;font-family:'Lucida Sans';-inkscape-font-specification:'Lucida Sans';text-align:center;letter-spacing:0px;word-spacing:0px;text-anchor:middle;stroke-width:0.185677"
       x="49.073147"
       y="47.86272"
       id="text1232"
       transform="scale(0.99137326,1.0087018)"><tspan
         sodipodi:role="line"
         id="tspan1230"
         x="49.073147"
         y="47.86272"
         style="stroke-width:0.185677">William Batecombe</tspan><tspan
         sodipodi:role="line"
         x="49.073147"
         y="51.576244"
         style="stroke-width:0.185677"
         id="tspan1238">William Rede</tspan><tspan
         sodipodi:role="line"
         x="49.073147"
         y="55.289772"
         style="stroke-width:0.185677"
         id="tspan1234"> Oxford Tables</tspan><tspan
         sodipodi:role="line"
         x="49.073147"
         y="59.003296"
         style="stroke-width:0.185677"
         id="tspan1236">~1348</tspan></text>
    <text
       xml:space="preserve"
       style="font-size:2.97082px;line-height:1.25;font-family:'Lucida Sans';-inkscape-font-specification:'Lucida Sans';text-align:center;letter-spacing:0px;word-spacing:0px;text-anchor:middle;stroke-width:0.185677"
       x="82.296013"
       y="48.765877"
       id="text1242"
       transform="scale(0.99137326,1.0087018)"><tspan
         sodipodi:role="line"
         id="tspan1240"
         x="82.296013"
         y="48.765877"
         style="stroke-width:0.185677">Giovanni Blanchini</tspan><tspan
         sodipodi:role="line"
         x="82.296013"
         y="52.479401"
         style="stroke-width:0.185677"
         id="tspan1244">~1450</tspan></text>
    <text
       xml:space="preserve"
       style="font-size:2.97082px;line-height:1.25;font-family:'Lucida Sans';-inkscape-font-specification:'Lucida Sans';text-align:center;letter-spacing:0px;word-spacing:0px;text-anchor:middle;stroke-width:0.185677"
       x="99.378952"
       y="56.82354"
       id="text1248"
       transform="scale(0.99137326,1.0087018)"><tspan
         sodipodi:role="line"
         id="tspan1246"
         x="99.378952"
         y="56.82354"
         style="stroke-width:0.185677">Georg Peurbach</tspan><tspan
         sodipodi:role="line"
         x="99.378952"
         y="60.537064"
         style="font-style:italic;stroke-width:0.185677"
         id="tspan1250">Tabulae eclypsium</tspan><tspan
         sodipodi:role="line"
         x="99.378952"
         y="64.250587"
         style="stroke-width:0.185677"
         id="tspan1252">1460</tspan></text>
    <text
       xml:space="preserve"
       style="font-size:2.97082px;line-height:1.25;font-family:'Lucida Sans';-inkscape-font-specification:'Lucida Sans';text-align:center;letter-spacing:0px;word-spacing:0px;text-anchor:middle;stroke-width:0.185677"
       x="76.866951"
       y="69.269424"
       id="text1256"
       transform="scale(0.99137326,1.0087018)"><tspan
         sodipodi:role="line"
         id="tspan1254"
         x="76.866951"
         y="69.269424"
         style="stroke-width:0.185677">Regiomontanus</tspan><tspan
         sodipodi:role="line"
         x="76.866951"
         y="72.982948"
         style="stroke-width:0.185677"
         id="tspan1258">~1460</tspan></text>
    <text
       xml:space="preserve"
       style="font-size:2.97082px;line-height:1.25;font-family:'Lucida Sans';-inkscape-font-specification:'Lucida Sans';text-align:center;letter-spacing:0px;word-spacing:0px;text-anchor:middle;stroke-width:0.185677"
       x="115.9972"
       y="48.765877"
       id="text1280"
       transform="scale(0.99137326,1.0087018)"><tspan
         sodipodi:role="line"
         id="tspan1278"
         x="115.9972"
         y="48.765877"
         style="font-style:italic;stroke-width:0.185677">Tabulae resolutae</tspan><tspan
         sodipodi:role="line"
         x="115.9972"
         y="52.479401"
         style="font-style:normal;stroke-width:0.185677"
         id="tspan1282">~1425</tspan></text>
    <rect
       style="fill:none;stroke:#000000;stroke-width:0.192102;stroke-miterlimit:4;stroke-dasharray:none;stroke-dashoffset:0;paint-order:stroke fill markers"
       id="rect1324"
       width="65.345665"
       height="16.929356"
       x="47.762348"
       y="25.615582" />
    <path
       style="fill:none;stroke:#000000;stroke-width:0.264583px;stroke-linecap:butt;stroke-linejoin:miter;stroke-opacity:1"
       d="m 63.602832,3.4475562 c 0,0 10.962785,3.96875 10.962785,3.96875"
       id="path2901"
       inkscape:path-effect="#path-effect2903"
       inkscape:original-d="m 63.602832,3.4475562 10.962785,3.96875" />
    <path
       style="fill:none;stroke:#000000;stroke-width:0.264583px;stroke-linecap:butt;stroke-linejoin:miter;stroke-opacity:1"
       d="m 104.99122,3.0688417 c 0,0 -10.206092,4.5357142 -10.206092,4.5357142"
       id="path2905"
       inkscape:path-effect="#path-effect2907"
       inkscape:original-d="M 104.99122,3.0688417 94.785128,7.6045559" />
    <path
       style="fill:none;stroke:#000000;stroke-width:0.264583px;stroke-linecap:butt;stroke-linejoin:miter;stroke-opacity:1"
       d="m 68.515046,16.487735 c 0,0 -10.39213,2.077392 -10.39213,2.077392"
       id="path2909"
       inkscape:path-effect="#path-effect2911"
       inkscape:original-d="m 68.515046,16.487735 -10.39213,2.077392" />
    <path
       style="fill:none;stroke:#000000;stroke-width:0.264583px;stroke-linecap:butt;stroke-linejoin:miter;stroke-opacity:1"
       d="m 53.584987,21.399949 c 0,0 5.105631,3.96875 5.105631,3.96875"
       id="path2913"
       inkscape:path-effect="#path-effect2915"
       inkscape:original-d="m 53.584987,21.399949 5.105631,3.96875" />
    <path
       style="fill:none;stroke:#000000;stroke-width:0.264583px;stroke-linecap:butt;stroke-linejoin:miter;stroke-opacity:1"
       d="m 80.233783,19.510806 c 0,0 -15.497021,6.048357 -15.497021,6.048357"
       id="path2917"
       inkscape:path-effect="#path-effect2919"
       inkscape:original-d="M 80.233783,19.510806 64.736762,25.559163" />
    <path
       style="fill:none;stroke:#000000;stroke-width:0.264583px;stroke-linecap:butt;stroke-linejoin:miter;stroke-opacity:1"
       d="m 87.604321,19.88952 c 0,0 10.584071,5.290929 10.584071,5.290929"
       id="path2921"
       inkscape:path-effect="#path-effect2923"
       inkscape:original-d="m 87.604321,19.88952 10.584071,5.290929" />
    <path
       style="fill:none;stroke:#000000;stroke-width:0.264583px;stroke-linecap:butt;stroke-linejoin:miter;stroke-opacity:1"
       d="m 73.619938,31.79577 c 0,0 16.063989,0.188251 16.063989,0.188251"
       id="path2925"
       inkscape:path-effect="#path-effect2927"
       inkscape:original-d="m 73.619938,31.79577 16.063989,0.188251" />
    <path
       style="fill:none;stroke:#000000;stroke-width:0.264583px;stroke-linecap:butt;stroke-linejoin:miter;stroke-opacity:1"
       d="m 58.879606,36.89845 c 0,0 9.824427,2.077392 9.824427,2.077392"
       id="path2933"
       inkscape:path-effect="#path-effect2935"
       inkscape:original-d="m 58.879606,36.89845 9.824427,2.077392" />
    <path
       style="fill:none;stroke:#000000;stroke-width:0.264583px;stroke-linecap:butt;stroke-linejoin:miter;stroke-opacity:1"
       d="m 97.432438,36.141019 c 0,0 -7.181546,2.267858 -7.181546,2.267858"
       id="path2937"
       inkscape:path-effect="#path-effect2939"
       inkscape:original-d="m 97.432438,36.141019 -7.181546,2.267858" />
    <path
       style="fill:none;stroke:#000000;stroke-width:0.264583px;stroke-linecap:butt;stroke-linejoin:miter;stroke-opacity:1"
       d="m 46.404177,35.952771 c 0,0 -3.777547,6.991821 -3.777547,6.991821"
       id="path2941"
       inkscape:path-effect="#path-effect2943"
       inkscape:original-d="M 46.404177,35.952771 42.62663,42.944592" />
    <path
       style="fill:none;stroke:#000000;stroke-width:0.264583px;stroke-linecap:butt;stroke-linejoin:miter;stroke-opacity:1"
       d="m 79.524527,43.275137 c 0,0 1.465762,3.214089 1.465762,3.214089"
       id="path2949"
       inkscape:path-effect="#path-effect2951"
       inkscape:original-d="m 79.524527,43.275137 1.465762,3.214089"
       sodipodi:nodetypes="cc" />
    <path
       style="fill:none;stroke:#000000;stroke-width:0.264583px;stroke-linecap:butt;stroke-linejoin:miter;stroke-opacity:1"
       d="m 80.713159,53.393984 c 0,0 3.966384,5.678556 3.966384,5.678556"
       id="path2953"
       inkscape:path-effect="#path-effect2955"
       inkscape:original-d="m 80.713159,53.393984 3.966384,5.678556"
       sodipodi:nodetypes="cc" />
    <path
       style="fill:none;stroke:#000000;stroke-width:0.264583px;stroke-linecap:butt;stroke-linejoin:miter;stroke-opacity:1"
       d="m 91.739779,63.421199 c 0,0 -13.087754,3.380273 -13.087754,3.380273"
       id="path2957"
       inkscape:path-effect="#path-effect2959"
       inkscape:original-d="M 91.739779,63.421199 78.652025,66.801472"
       sodipodi:nodetypes="cc" />
    <path
       style="fill:none;stroke:#000000;stroke-width:0.264583px;stroke-linecap:butt;stroke-linejoin:miter;stroke-opacity:1"
       d="m 85.764968,43.511557 c 0,0 15.256032,2.646571 15.256032,2.646571"
       id="path2965"
       inkscape:path-effect="#path-effect2967"
       inkscape:original-d="M 85.764968,43.511557 101.021,46.158128"
       sodipodi:nodetypes="cc" />
    <path
       style="fill:none;stroke:#000000;stroke-width:0.264583px;stroke-linecap:butt;stroke-linejoin:miter;stroke-opacity:1"
       d="m 78.895879,53.585452 c 0,0 -5.613443,11.156414 -5.613443,11.156414"
       id="path2969"
       inkscape:path-effect="#path-effect2971"
       inkscape:original-d="M 78.895879,53.585452 73.282436,64.741866"
       sodipodi:nodetypes="cc" />
  </g>
</svg>
